{"data":[{"id":"xl9mdd","url":"https:\/\/wallhaven.cc\/w\/xl9mdd","short_url":"https:\/\/whvn.cc\/xl9mdd","views":51,"favorites":3,"source":"https:\/\/www.deviantart.com\/ayyasap\/","purity":"sfw","category":"general","dimension_x":3840,"dimension_y":2160,"resolution":"3840x2160","ratio":"1.78","file_size":3736968,"file_type":"image\/jpeg","created_at":"2019-10-03 09:28:01","colors":["#424153","#333399","#000000","#ea4c88","#663399"],"path":"https:\/\/w.wallhaven.cc\/full\/xl\/wallhaven-xl9mdd.jpg","thumbs":{"large":"https:\/\/th.wallhaven.cc\/lg\/xl\/xl9mdd.jpg","original":"https:\/\/th.wallhaven.cc\/orig\/xl\/xl9mdd.jpg","small":"https:\/\/th.wallhaven.cc\/small\/xl\/xl9mdd.jpg"}},{"id":"q6oym5","url":"https:\/\/wallhaven.cc\/w\/q6oym5","short_url":"https:\/\/whvn.cc\/q6oym5","views":60,"favorites":2,"source":"https:\/\/www.deviantart.com\/ayyasap\/","purity":"sfw","category":"general","dimension_x":5333,"dimension_y":3000,"resolution":"5333x3000","ratio":"1.78","file_size":17170201,"file_type":"image\/jpeg","created_at":"2019-10-03 09:28:01","colors":["#fdadc7","#ffffff","#993399","#999999","#ea4c88"],"path":"https:\/\/w.wallhaven.cc\/full\/q6\/wallhaven-q6oym5.jpg","thumbs":{"large":"https:\/\/th.wallhaven.cc\/lg\/q6\/q6oym5.jpg","original":"https:\/\/th.wallhaven.cc\/orig\/q6\/q6oym5.jpg","small":"https:\/\/th.wallhaven.cc\/small\/q6\/q6oym5.jpg"}},{"id":"zm9edv","url":"https:\/\/wallhaven.cc\/w\/zm9edv","short_url":"https:\/\/whvn.cc\/zm9edv","views":53,"favorites":3,"source":"https:\/\/www.deviantart.com\/ayyasap\/","purity":"sfw","category":"general","dimension_x":3840,"dimension_y":2160,"resolution":"3840x2160","ratio":"1.78","file_size":4883509,"file_type":"image\/jpeg","created_at":"2019-10-03 09:28:01","colors":["#424153","#999999","#fdadc7","#000000","#663399"],"path":"https:\/\/w.wallhaven.cc\/full\/zm\/wallhaven-zm9edv.jpg","thumbs":{"large":"https:\/\/th.wallhaven.cc\/lg\/zm\/zm9edv.jpg","original":"https:\/\/th.wallhaven.cc\/orig\/zm\/zm9edv.jpg","small":"https:\/\/th.wallhaven.cc\/small\/zm\/zm9edv.jpg"}},{"id":"83jy9j","url":"https:\/\/wallhaven.cc\/w\/83jy9j","short_url":"https:\/\/whvn.cc\/83jy9j","views":32,"favorites":2,"source":"https:\/\/www.deviantart.com\/ayyasap\/","purity":"sfw","category":"general","dimension_x":3555,"dimension_y":2000,"resolution":"3555x2000","ratio":"1.78","file_size":4876675,"file_type":"image\/jpeg","created_at":"2019-10-03 09:28:01","colors":["#424153","#000000","#333399","#999999","#abbcda"],"path":"https:\/\/w.wallhaven.cc\/full\/83\/wallhaven-83jy9j.jpg","thumbs":{"large":"https:\/\/th.wallhaven.cc\/lg\/83\/83jy9j.jpg","original":"https:\/\/th.wallhaven.cc\/orig\/83\/83jy9j.jpg","small":"https:\/\/th.wallhaven.cc\/small\/83\/83jy9j.jpg"}},{"id":"96gl9w","url":"https:\/\/wallhaven.cc\/w\/96gl9w","short_url":"https:\/\/whvn.cc\/96gl9w","views":63,"favorites":1,"source":"","purity":"sfw","category":"general","dimension_x":3840,"dimension_y":2160,"resolution":"3840x2160","ratio":"1.78","file_size":2232050,"file_type":"image\/jpeg","created_at":"2019-10-03 08:20:23","colors":["#000000","#424153","#996633","#663300","#660000"],"path":"https:\/\/w.wallhaven.cc\/full\/96\/wallhaven-96gl9w.jpg","thumbs":{"large":"https:\/\/th.wallhaven.cc\/lg\/96\/96gl9w.jpg","original":"https:\/\/th.wallhaven.cc\/orig\/96\/96gl9w.jpg","small":"https:\/\/th.wallhaven.cc\/small\/96\/96gl9w.jpg"}},{"id":"r26lp1","url":"https:\/\/wallhaven.cc\/w\/r26lp1","short_url":"https:\/\/whvn.cc\/r26lp1","views":44,"favorites":0,"source":"","purity":"sfw","category":"general","dimension_x":3840,"dimension_y":2160,"resolution":"3840x2160","ratio":"1.78","file_size":3866603,"file_type":"image\/jpeg","created_at":"2019-10-03 08:20:23","colors":["#424153","#000000","#999999","#cccccc","#996633"],"path":"https:\/\/w.wallhaven.cc\/full\/r2\/wallhaven-r26lp1.jpg","thumbs":{"large":"https:\/\/th.wallhaven.cc\/lg\/r2\/r26lp1.jpg","original":"https:\/\/th.wallhaven.cc\/orig\/r2\/r26lp1.jpg","small":"https:\/\/th.wallhaven.cc\/small\/r2\/r26lp1.jpg"}},{"id":"dgd7oj","url":"https:\/\/wallhaven.cc\/w\/dgd7oj","short_url":"https:\/\/whvn.cc\/dgd7oj","views":58,"favorites":1,"source":"","purity":"sfw","category":"general","dimension_x":3840,"dimension_y":2160,"resolution":"3840x2160","ratio":"1.78","file_size":6137770,"file_type":"image\/jpeg","created_at":"2019-10-03 08:20:23","colors":["#000000","#663300","#e7d8b1","#999999","#424153"],"path":"https:\/\/w.wallhaven.cc\/full\/dg\/wallhaven-dgd7oj.jpg","thumbs":{"large":"https:\/\/th.wallhaven.cc\/lg\/dg\/dgd7oj.jpg","original":"https:\/\/th.wallhaven.cc\/orig\/dg\/dgd7oj.jpg","small":"https:\/\/th.wallhaven.cc\/small\/dg\/dgd7oj.jpg"}},{"id":"kwdql6","url":"https:\/\/wallhaven.cc\/w\/kwdql6","short_url":"https:\/\/whvn.cc\/kwdql6","views":94,"favorites":2,"source":"","purity":"sfw","category":"general","dimension_x":1920,"dimension_y":1080,"resolution":"1920x1080","ratio":"1.78","file_size":566296,"file_type":"image\/jpeg","created_at":"2019-10-03 07:56:20","colors":["#424153","#000000","#cc6633","#996633","#663300"],"path":"https:\/\/w.wallhaven.cc\/full\/kw\/wallhaven-kwdql6.jpg","thumbs":{"large":"https:\/\/th.wallhaven.cc\/lg\/kw\/kwdql6.jpg","original":"https:\/\/th.wallhaven.cc\/orig\/kw\/kwdql6.jpg","small":"https:\/\/th.wallhaven.cc\/small\/kw\/kwdql6.jpg"}},{"id":"p8gd7j","url":"https:\/\/wallhaven.cc\/w\/p8gd7j","short_url":"https:\/\/whvn.cc\/p8gd7j","views":82,"favorites":5,"source":"https:\/\/imgur.com\/z9jU3ME","purity":"sfw","category":"anime","dimension_x":1920,"dimension_y":1080,"resolution":"1920x1080","ratio":"1.78","file_size":245197,"file_type":"image\/png","created_at":"2019-10-03 06:42:27","colors":["#424153","#000000","#999999","#abbcda","#663399"],"path":"https:\/\/w.wallhaven.cc\/full\/p8\/wallhaven-p8gd7j.png","thumbs":{"large":"https:\/\/th.wallhaven.cc\/lg\/p8\/p8gd7j.jpg","original":"https:\/\/th.wallhaven.cc\/orig\/p8\/p8gd7j.jpg","small":"https:\/\/th.wallhaven.cc\/small\/p8\/p8gd7j.jpg"}},{"id":"mdykg1","url":"https:\/\/wallhaven.cc\/w\/mdykg1","short_url":"https:\/\/whvn.cc\/mdykg1","views":89,"favorites":5,"source":"https:\/\/imgur.com\/UrVkpFC","purity":"sfw","category":"anime","dimension_x":1920,"dimension_y":1080,"resolution":"1920x1080","ratio":"1.78","file_size":229525,"file_type":"image\/png","created_at":"2019-10-03 06:39:20","colors":["#424153","#000000","#660000","#ffff00","#abbcda"],"path":"https:\/\/w.wallhaven.cc\/full\/md\/wallhaven-mdykg1.png","thumbs":{"large":"https:\/\/th.wallhaven.cc\/lg\/md\/mdykg1.jpg","original":"https:\/\/th.wallhaven.cc\/orig\/md\/mdykg1.jpg","small":"https:\/\/th.wallhaven.cc\/small\/md\/mdykg1.jpg"}},{"id":"r26ljw","url":"https:\/\/wallhaven.cc\/w\/r26ljw","short_url":"https:\/\/whvn.cc\/r26ljw","views":47,"favorites":1,"source":"","purity":"sfw","category":"general","dimension_x":1920,"dimension_y":1251,"resolution":"1920x1251","ratio":"1.53","file_size":553989,"file_type":"image\/jpeg","created_at":"2019-10-03 05:55:19","colors":["#ffffff","#cccccc","#999999","#abbcda","#fdadc7"],"path":"https:\/\/w.wallhaven.cc\/full\/r2\/wallhaven-r26ljw.jpg","thumbs":{"large":"https:\/\/th.wallhaven.cc\/lg\/r2\/r26ljw.jpg","original":"https:\/\/th.wallhaven.cc\/orig\/r2\/r26ljw.jpg","small":"https:\/\/th.wallhaven.cc\/small\/r2\/r26ljw.jpg"}},{"id":"96glrk","url":"https:\/\/wallhaven.cc\/w\/96glrk","short_url":"https:\/\/whvn.cc\/96glrk","views":60,"favorites":4,"source":"","purity":"sfw","category":"general","dimension_x":2048,"dimension_y":1365,"resolution":"2048x1365","ratio":"1.5","file_size":280263,"file_type":"image\/jpeg","created_at":"2019-10-03 05:51:18","colors":["#cccccc","#ffffff","#abbcda","#999999","#66cccc"],"path":"https:\/\/w.wallhaven.cc\/full\/96\/wallhaven-96glrk.jpg","thumbs":{"large":"https:\/\/th.wallhaven.cc\/lg\/96\/96glrk.jpg","original":"https:\/\/th.wallhaven.cc\/orig\/96\/96glrk.jpg","small":"https:\/\/th.wallhaven.cc\/small\/96\/96glrk.jpg"}},{"id":"kwdq2d","url":"https:\/\/wallhaven.cc\/w\/kwdq2d","short_url":"https:\/\/whvn.cc\/kwdq2d","views":168,"favorites":2,"source":"","purity":"sfw","category":"general","dimension_x":1920,"dimension_y":1200,"resolution":"1920x1200","ratio":"1.6","file_size":1495576,"file_type":"image\/jpeg","created_at":"2019-10-03 05:50:01","colors":["#999999","#424153","#0066cc","#333399","#0099cc"],"path":"https:\/\/w.wallhaven.cc\/full\/kw\/wallhaven-kwdq2d.jpg","thumbs":{"large":"https:\/\/th.wallhaven.cc\/lg\/kw\/kwdq2d.jpg","original":"https:\/\/th.wallhaven.cc\/orig\/kw\/kwdq2d.jpg","small":"https:\/\/th.wallhaven.cc\/small\/kw\/kwdq2d.jpg"}},{"id":"132zrg","url":"https:\/\/wallhaven.cc\/w\/132zrg","short_url":"https:\/\/whvn.cc\/132zrg","views":45,"favorites":3,"source":"","purity":"sfw","category":"general","dimension_x":2048,"dimension_y":1363,"resolution":"2048x1363","ratio":"1.5","file_size":423366,"file_type":"image\/jpeg","created_at":"2019-10-03 05:47:43","colors":["#000000","#424153","#999999","#e7d8b1","#996633"],"path":"https:\/\/w.wallhaven.cc\/full\/13\/wallhaven-132zrg.jpg","thumbs":{"large":"https:\/\/th.wallhaven.cc\/lg\/13\/132zrg.jpg","original":"https:\/\/th.wallhaven.cc\/orig\/13\/132zrg.jpg","small":"https:\/\/th.wallhaven.cc\/small\/13\/132zrg.jpg"}},{"id":"q6oyll","url":"https:\/\/wallhaven.cc\/w\/q6oyll","short_url":"https:\/\/whvn.cc\/q6oyll","views":68,"favorites":3,"source":"","purity":"sfw","category":"general","dimension_x":1920,"dimension_y":1280,"resolution":"1920x1280","ratio":"1.5","file_size":1009798,"file_type":"image\/jpeg","created_at":"2019-10-03 05:46:45","colors":["#424153","#336600","#000000","#999999","#77cc33"],"path":"https:\/\/w.wallhaven.cc\/full\/q6\/wallhaven-q6oyll.jpg","thumbs":{"large":"https:\/\/th.wallhaven.cc\/lg\/q6\/q6oyll.jpg","original":"https:\/\/th.wallhaven.cc\/orig\/q6\/q6oyll.jpg","small":"https:\/\/th.wallhaven.cc\/small\/q6\/q6oyll.jpg"}},{"id":"83jyrk","url":"https:\/\/wallhaven.cc\/w\/83jyrk","short_url":"https:\/\/whvn.cc\/83jyrk","views":78,"favorites":1,"source":"","purity":"sfw","category":"general","dimension_x":2048,"dimension_y":1365,"resolution":"2048x1365","ratio":"1.5","file_size":1197382,"file_type":"image\/jpeg","created_at":"2019-10-03 05:44:13","colors":["#424153","#000000","#999999","#663300","#cccccc"],"path":"https:\/\/w.wallhaven.cc\/full\/83\/wallhaven-83jyrk.jpg","thumbs":{"large":"https:\/\/th.wallhaven.cc\/lg\/83\/83jyrk.jpg","original":"https:\/\/th.wallhaven.cc\/orig\/83\/83jyrk.jpg","small":"https:\/\/th.wallhaven.cc\/small\/83\/83jyrk.jpg"}},{"id":"ey2mw8","url":"https:\/\/wallhaven.cc\/w\/ey2mw8","short_url":"https:\/\/whvn.cc\/ey2mw8","views":129,"favorites":3,"source":"","purity":"sfw","category":"people","dimension_x":1920,"dimension_y":1288,"resolution":"1920x1288","ratio":"1.49","file_size":583098,"file_type":"image\/jpeg","created_at":"2019-10-03 05:42:02","colors":["#000000","#424153","#333399","#0066cc","#999999"],"path":"https:\/\/w.wallhaven.cc\/full\/ey\/wallhaven-ey2mw8.jpg","thumbs":{"large":"https:\/\/th.wallhaven.cc\/lg\/ey\/ey2mw8.jpg","original":"https:\/\/th.wallhaven.cc\/orig\/ey\/ey2mw8.jpg","small":"https:\/\/th.wallhaven.cc\/small\/ey\/ey2mw8.jpg"}},{"id":"p8gdy9","url":"https:\/\/wallhaven.cc\/w\/p8gdy9","short_url":"https:\/\/whvn.cc\/p8gdy9","views":110,"favorites":4,"source":"","purity":"sfw","category":"general","dimension_x":2048,"dimension_y":1377,"resolution":"2048x1377","ratio":"1.49","file_size":668298,"file_type":"image\/jpeg","created_at":"2019-10-03 05:41:00","colors":["#424153","#999999","#000000","#333399","#e7d8b1"],"path":"https:\/\/w.wallhaven.cc\/full\/p8\/wallhaven-p8gdy9.jpg","thumbs":{"large":"https:\/\/th.wallhaven.cc\/lg\/p8\/p8gdy9.jpg","original":"https:\/\/th.wallhaven.cc\/orig\/p8\/p8gdy9.jpg","small":"https:\/\/th.wallhaven.cc\/small\/p8\/p8gdy9.jpg"}},{"id":"mdyk29","url":"https:\/\/wallhaven.cc\/w\/mdyk29","short_url":"https:\/\/whvn.cc\/mdyk29","views":60,"favorites":4,"source":"","purity":"sfw","category":"general","dimension_x":2048,"dimension_y":1356,"resolution":"2048x1356","ratio":"1.51","file_size":775365,"file_type":"image\/jpeg","created_at":"2019-10-03 05:39:58","colors":["#cccccc","#999999","#424153","#996633","#abbcda"],"path":"https:\/\/w.wallhaven.cc\/full\/md\/wallhaven-mdyk29.jpg","thumbs":{"large":"https:\/\/th.wallhaven.cc\/lg\/md\/mdyk29.jpg","original":"https:\/\/th.wallhaven.cc\/orig\/md\/mdyk29.jpg","small":"https:\/\/th.wallhaven.cc\/small\/md\/mdyk29.jpg"}},{"id":"6kyrwq","url":"https:\/\/wallhaven.cc\/w\/6kyrwq","short_url":"https:\/\/whvn.cc\/6kyrwq","views":195,"favorites":7,"source":"","purity":"sfw","category":"people","dimension_x":1920,"dimension_y":1280,"resolution":"1920x1280","ratio":"1.5","file_size":528048,"file_type":"image\/jpeg","created_at":"2019-10-03 05:38:48","colors":["#424153","#999999","#000000","#abbcda","#cccccc"],"path":"https:\/\/w.wallhaven.cc\/full\/6k\/wallhaven-6kyrwq.jpg","thumbs":{"large":"https:\/\/th.wallhaven.cc\/lg\/6k\/6kyrwq.jpg","original":"https:\/\/th.wallhaven.cc\/orig\/6k\/6kyrwq.jpg","small":"https:\/\/th.wallhaven.cc\/small\/6k\/6kyrwq.jpg"}},{"id":"g8de93","url":"https:\/\/wallhaven.cc\/w\/g8de93","short_url":"https:\/\/whvn.cc\/g8de93","views":61,"favorites":0,"source":"","purity":"sfw","category":"general","dimension_x":1920,"dimension_y":1280,"resolution":"1920x1280","ratio":"1.5","file_size":550450,"file_type":"image\/jpeg","created_at":"2019-10-03 05:35:45","colors":["#424153","#996633","#000000","#999999","#663300"],"path":"https:\/\/w.wallhaven.cc\/full\/g8\/wallhaven-g8de93.jpg","thumbs":{"large":"https:\/\/th.wallhaven.cc\/lg\/g8\/g8de93.jpg","original":"https:\/\/th.wallhaven.cc\/orig\/g8\/g8de93.jpg","small":"https:\/\/th.wallhaven.cc\/small\/g8\/g8de93.jpg"}},{"id":"j5dzkm","url":"https:\/\/wallhaven.cc\/w\/j5dzkm","short_url":"https:\/\/whvn.cc\/j5dzkm","views":60,"favorites":2,"source":"","purity":"sfw","category":"general","dimension_x":1920,"dimension_y":1280,"resolution":"1920x1280","ratio":"1.5","file_size":546160,"file_type":"image\/jpeg","created_at":"2019-10-03 05:34:08","colors":["#999999","#e7d8b1","#cccccc","#424153","#996633"],"path":"https:\/\/w.wallhaven.cc\/full\/j5\/wallhaven-j5dzkm.jpg","thumbs":{"large":"https:\/\/th.wallhaven.cc\/lg\/j5\/j5dzkm.jpg","original":"https:\/\/th.wallhaven.cc\/orig\/j5\/j5dzkm.jpg","small":"https:\/\/th.wallhaven.cc\/small\/j5\/j5dzkm.jpg"}},{"id":"lmd1kl","url":"https:\/\/wallhaven.cc\/w\/lmd1kl","short_url":"https:\/\/whvn.cc\/lmd1kl","views":75,"favorites":2,"source":"","purity":"sfw","category":"general","dimension_x":2048,"dimension_y":1300,"resolution":"2048x1300","ratio":"1.58","file_size":1627026,"file_type":"image\/jpeg","created_at":"2019-10-03 05:30:35","colors":["#424153","#996633","#999999","#000000","#663300"],"path":"https:\/\/w.wallhaven.cc\/full\/lm\/wallhaven-lmd1kl.jpg","thumbs":{"large":"https:\/\/th.wallhaven.cc\/lg\/lm\/lmd1kl.jpg","original":"https:\/\/th.wallhaven.cc\/orig\/lm\/lmd1kl.jpg","small":"https:\/\/th.wallhaven.cc\/small\/lm\/lmd1kl.jpg"}},{"id":"39215v","url":"https:\/\/wallhaven.cc\/w\/39215v","short_url":"https:\/\/whvn.cc\/39215v","views":229,"favorites":12,"source":"","purity":"sfw","category":"people","dimension_x":2560,"dimension_y":1708,"resolution":"2560x1708","ratio":"1.5","file_size":642779,"file_type":"image\/jpeg","created_at":"2019-10-03 04:59:35","colors":["#cccccc","#663300","#999999","#996633","#424153"],"path":"https:\/\/w.wallhaven.cc\/full\/39\/wallhaven-39215v.jpg","thumbs":{"large":"https:\/\/th.wallhaven.cc\/lg\/39\/39215v.jpg","original":"https:\/\/th.wallhaven.cc\/orig\/39\/39215v.jpg","small":"https:\/\/th.wallhaven.cc\/small\/39\/39215v.jpg"}}],"meta":{"current_page":1,"last_page":15367,"per_page":24,"total":368786,"query":null,"seed":null}}